Data Manipulation
…
select

We can select desired columns by naming them.

litters_data %>% 
  select(group, litter_number, gd0_weight, pups_born_alive)

## # A tibble: 49 x 4
##    group litter_number   gd0_weight pups_born_alive
##    <chr> <chr>                <dbl>           <int>
##  1 Con7  #85                   19.7               3
##  2 Con7  #1/2/95/2             27                 8
##  3 Con7  #5/5/3/83/3-3         26                 6
##  4 Con7  #5/4/2/95/2           28.5               5
##  5 Con7  #4/2/95/3-3           NA                 6
##  6 Con7  #2/2/95/3-2           NA                 6
##  7 Con7  #1/5/3/83/3-3/2       NA                 9
##  8 Con8  #3/83/3-3             NA                 9
##  9 Con8  #2/95/3               NA                 8
## 10 Con8  #3/5/2/2/95           28.5               8
## # ... with 39 more rows

We can select a group of desired columns.

litters_data %>%
  select(group:gd_of_birth)

## # A tibble: 49 x 5
##    group litter_number   gd0_weight gd18_weight gd_of_birth
##    <chr> <chr>                <dbl>       <dbl>       <int>
##  1 Con7  #85                   19.7        34.7          20
##  2 Con7  #1/2/95/2             27          42            19
##  3 Con7  #5/5/3/83/3-3         26          41.4          19
##  4 Con7  #5/4/2/95/2           28.5        44.1          19
##  5 Con7  #4/2/95/3-3           NA          NA            20
##  6 Con7  #2/2/95/3-2           NA          NA            20
##  7 Con7  #1/5/3/83/3-3/2       NA          NA            20
##  8 Con8  #3/83/3-3             NA          NA            20
##  9 Con8  #2/95/3               NA          NA            20
## 10 Con8  #3/5/2/2/95           28.5        NA            20
## # ... with 39 more rows

We can select desired columns by removing unwanted ones.

litters_data %>% 
  select(-pups_survive)

## # A tibble: 49 x 7
##    group litter_number gd0_weight gd18_weight gd_of_birth pups_born_alive
##    <chr> <chr>              <dbl>       <dbl>       <int>           <int>
##  1 Con7  #85                 19.7        34.7          20               3
##  2 Con7  #1/2/95/2           27          42            19               8
##  3 Con7  #5/5/3/83/3-3       26          41.4          19               6
##  4 Con7  #5/4/2/95/2         28.5        44.1          19               5
##  5 Con7  #4/2/95/3-3         NA          NA            20               6
##  6 Con7  #2/2/95/3-2         NA          NA            20               6
##  7 Con7  #1/5/3/83/3-~       NA          NA            20               9
##  8 Con8  #3/83/3-3           NA          NA            20               9
##  9 Con8  #2/95/3             NA          NA            20               8
## 10 Con8  #3/5/2/2/95         28.5        NA            20               8
## # ... with 39 more rows, and 1 more variable: pups_dead_birth <int>

We can rename variables as part of the select process.

litters_data %>% 
  select(group1 = group, litter_number2 = litter_number)

## # A tibble: 49 x 2
##    group1 litter_number2 
##    <chr>  <chr>          
##  1 Con7   #85            
##  2 Con7   #1/2/95/2      
##  3 Con7   #5/5/3/83/3-3  
##  4 Con7   #5/4/2/95/2    
##  5 Con7   #4/2/95/3-3    
##  6 Con7   #2/2/95/3-2    
##  7 Con7   #1/5/3/83/3-3/2
##  8 Con8   #3/83/3-3      
##  9 Con8   #2/95/3        
## 10 Con8   #3/5/2/2/95    
## # ... with 39 more rows

If all we want to do is renaming, then we can use rename.

litters_data %>% 
  rename(group1 = group, litter_number2 = litter_number)

## # A tibble: 49 x 8
##    group1 litter_number2 gd0_weight gd18_weight gd_of_birth pups_born_alive
##    <chr>  <chr>               <dbl>       <dbl>       <int>           <int>
##  1 Con7   #85                  19.7        34.7          20               3
##  2 Con7   #1/2/95/2            27          42            19               8
##  3 Con7   #5/5/3/83/3-3        26          41.4          19               6
##  4 Con7   #5/4/2/95/2          28.5        44.1          19               5
##  5 Con7   #4/2/95/3-3          NA          NA            20               6
##  6 Con7   #2/2/95/3-2          NA          NA            20               6
##  7 Con7   #1/5/3/83/3-3~       NA          NA            20               9
##  8 Con8   #3/83/3-3            NA          NA            20               9
##  9 Con8   #2/95/3              NA          NA            20               8
## 10 Con8   #3/5/2/2/95          28.5        NA            20               8
## # ... with 39 more rows, and 2 more variables: pups_dead_birth <int>,
## #   pups_survive <int>

Another common function that is quite useful is everything(), we can use it to rearrange the column order easily.

litters_data %>% 
  select(litter_number, group, everything())

## # A tibble: 49 x 8
##    litter_number group gd0_weight gd18_weight gd_of_birth pups_born_alive
##    <chr>         <chr>      <dbl>       <dbl>       <int>           <int>
##  1 #85           Con7        19.7        34.7          20               3
##  2 #1/2/95/2     Con7        27          42            19               8
##  3 #5/5/3/83/3-3 Con7        26          41.4          19               6
##  4 #5/4/2/95/2   Con7        28.5        44.1          19               5
##  5 #4/2/95/3-3   Con7        NA          NA            20               6
##  6 #2/2/95/3-2   Con7        NA          NA            20               6
##  7 #1/5/3/83/3-~ Con7        NA          NA            20               9
##  8 #3/83/3-3     Con8        NA          NA            20               9
##  9 #2/95/3       Con8        NA          NA            20               8
## 10 #3/5/2/2/95   Con8        28.5        NA            20               8
## # ... with 39 more rows, and 2 more variables: pups_dead_birth <int>,
## #   pups_survive <int>
…
